Problem 2
…
data("rest_inspec")

set.seed(1)

rest_inspec = 
  rest_inspec %>% 
  select(
    boro, cuisine_description, dba, inspection_date, inspection_type, critical_flag, score, grade) %>%
  drop_na(score) %>%
  sample_n(5000) 
  
rest_inspec

## # A tibble: 5,000 x 8
##    boro  cuisine_descrip… dba   inspection_date     inspection_type
##    <chr> <chr>            <chr> <dttm>              <chr>          
##  1 MANH… Sandwiches/Sala… AU B… 2017-08-11 00:00:00 Cycle Inspecti…
##  2 MANH… Pizza            DOMI… 2014-06-11 00:00:00 Cycle Inspecti…
##  3 QUEE… Bakery           LETY… 2014-07-07 00:00:00 Cycle Inspecti…
##  4 MANH… Tapas            LA N… 2014-12-04 00:00:00 Cycle Inspecti…
##  5 MANH… American         FRAU… 2017-06-05 00:00:00 Cycle Inspecti…
##  6 BROO… Latin (Cuban, D… LAS … 2015-05-05 00:00:00 Cycle Inspecti…
##  7 MANH… American         WIMP… 2017-06-06 00:00:00 Cycle Inspecti…
##  8 MANH… Polish           KLIM… 2015-02-17 00:00:00 Cycle Inspecti…
##  9 BROO… Latin (Cuban, D… EL C… 2014-08-14 00:00:00 Cycle Inspecti…
## 10 MANH… Ice Cream, Gela… CARV… 2017-08-11 00:00:00 Cycle Inspecti…
## # … with 4,990 more rows, and 3 more variables: critical_flag <chr>,
## #   score <int>, grade <chr>
…
